{
    "limitClass": "ChannelLimit",
    "id": 180512191,
    "reference": "1805.12191",
    "source": "Fig. 6/Tab. 1",
    "citeKey": "CMS:2018hir",
    "collider": "LHC13",
    "experiment": "CMS",
    "luminosity": 35.7,
    "process": {
        "channels": [
            [
                "bbH",
                "bb"
            ]
        ]
    },
    "analysis": {
        "massResolution": {
            "absolute": 15,
            "relative": 0.15
        },
        "grid": {
            "mass": [
                300.0,
                350.0,
                400.0,
                499.0,
                500.0,
                600.0,
                700.0,
                900.0,
                1099.0,
                1100.0,
                1300.0
            ]
        },
        "limit": {
            "observed": [
                19.1,
                14.0,
                5.7,
                4.0,
                1.9,
                2.1,
                1.5,
                0.9,
                0.56,
                0.4,
                0.5
            ],
            "expected": [
                19.7,
                11.7,
                6.7,
                4.7,
                3.1,
                1.9,
                1.3,
                0.8,
                0.94,
                0.68,
                0.68
            ]
        }
    }
}