{
    "limitClass": "ChannelLimit",
    "id": 4100172,
    "reference": "hep-ex/0410017",
    "source": "Fig 9(bottom)",
    "citeKey": "DELPHI:2004bco",
    "collider": "LEP",
    "experiment": "DELPHI",
    "luminosity": 0.69,
    "process": {
        "channels": [
            [
                "eeHbb",
                "bb"
            ]
        ]
    },
    "constraints": [
        {
            "CPValue": "odd"
        }
    ],
    "analysis": {
        "massResolution": {
            "absolute": 3,
            "relative": 0
        },
        "grid": {
            "mass": [
                12.0,
                13.0,
                14.0,
                15.0,
                16.0,
                17.0,
                18.0,
                19.0,
                20.0,
                21.0,
                22.0,
                23.0,
                24.0,
                25.0,
                26.0,
                27.0,
                28.0,
                29.0,
                30.0,
                31.0,
                32.0,
                33.0,
                34.0,
                35.0,
                36.0,
                37.0,
                38.0,
                39.0,
                40.0,
                41.0,
                42.0,
                43.0,
                44.0,
                45.0,
                46.0,
                47.0,
                48.0,
                49.0,
                50.0
            ]
        },
        "limit": {
            "observed": [
                310.0,
                426.0,
                410.0,
                332.0,
                347.0,
                362.0,
                394.0,
                410.0,
                426.0,
                460.0,
                487.0,
                514.0,
                561.0,
                590.0,
                630.0,
                671.0,
                725.0,
                780.0,
                850.0,
                922.0,
                1010.0,
                1130.0,
                1250.0,
                1390.0,
                1560.0,
                1720.0,
                1930.0,
                2130.0,
                2420.0,
                2750.0,
                3260.0,
                3710.0,
                4410.0,
                5080.0,
                6010.0,
                7130.0,
                8450.0,
                9840.0,
                10000.0
            ],
            "expected": [
                178.0,
                230.0,
                237.0,
                207.0,
                218.0,
                237.0,
                237.0,
                249.0,
                269.0,
                282.0,
                310.0,
                317.0,
                339.0,
                370.0,
                394.0,
                426.0,
                443.0,
                487.0,
                533.0,
                590.0,
                640.0,
                703.0,
                792.0,
                885.0,
                984.0,
                1100.0,
                1240.0,
                1400.0,
                1540.0,
                1740.0,
                2070.0,
                2360.0,
                2750.0,
                3240.0,
                3760.0,
                4460.0,
                5220.0,
                6170.0,
                7370.0
            ]
        }
    }
}