{
    "limitClass": "ChannelLimit",
    "id": 1512037042,
    "reference": "1512.03704",
    "source": "Fig. 10(b)",
    "citeKey": "ATLAS:2015nkq",
    "collider": "LHC8",
    "experiment": "ATLAS",
    "luminosity": 20.3,
    "process": {
        "channels": [
            [
                "qqHpm",
                "tb"
            ]
        ]
    },
    "analysis": {
        "massResolution": {
            "absolute": 20,
            "relative": 0.12
        },
        "grid": {
            "mass": [
                1500.0,
                1750.0,
                2000.0,
                2250.0,
                2500.0,
                2750.0,
                3000.0
            ]
        },
        "limit": {
            "observed": [
                0.12872,
                0.22432,
                0.21763,
                0.19872,
                0.1833,
                0.17604,
                0.09039
            ],
            "expected": [
                0.21328,
                0.18894,
                0.15438,
                0.12743,
                0.11403,
                0.11288,
                0.12488
            ]
        }
    }
}