{
    "limitClass": "ChannelLimit",
    "id": 1512037041,
    "reference": "1512.03704",
    "source": "Fig. 10(a)",
    "citeKey": "ATLAS:2015nkq",
    "collider": "LHC8",
    "experiment": "ATLAS",
    "luminosity": 20.3,
    "process": {
        "channels": [
            [
                "qqHpm",
                "tb"
            ]
        ]
    },
    "analysis": {
        "massResolution": {
            "absolute": 20,
            "relative": 0.12
        },
        "grid": {
            "mass": [
                400.0,
                600.0,
                800.0,
                1000.0,
                1200.0,
                1400.0,
                1600.0,
                1800.0,
                2000.0
            ]
        },
        "limit": {
            "observed": [
                6.6156,
                1.4446,
                0.38977,
                0.1558,
                0.11515,
                0.1,
                0.098997,
                0.15424,
                0.17582
            ],
            "expected": [
                7.3911,
                2.2734,
                0.61962,
                0.35598,
                0.25018,
                0.19446,
                0.18122,
                0.2767,
                0.31416
            ]
        }
    }
}