{
    "limitClass": "ChannelLimit",
    "id": 140960642,
    "reference": "1409.6064",
    "source": "Aux Fig 22",
    "citeKey": "ATLAS:2014vhc",
    "collider": "LHC8",
    "experiment": "ATLAS",
    "luminosity": 20.3,
    "process": {
        "channels": [
            [
                "bbH",
                "tautau"
            ]
        ]
    },
    "analysis": {
        "massResolution": {
            "absolute": 5,
            "relative": 0.15
        },
        "grid": {
            "mass": [
                90,
                100,
                110,
                120,
                130,
                140,
                150,
                170,
                199.9,
                200,
                250,
                300,
                350,
                400,
                450,
                500,
                600,
                700,
                800,
                900,
                1000
            ]
        },
        "limit": {
            "observed": [
                6.4,
                6.4,
                4.9,
                2.7,
                2.3,
                1.3,
                1.2,
                0.75,
                0.39,
                0.77,
                0.3,
                0.13,
                0.11,
                0.073,
                0.04,
                0.026,
                0.018,
                0.013,
                0.01,
                0.0082,
                0.0074
            ],
            "expected": [
                7.5,
                4.9,
                4,
                2.6,
                2.2,
                1.7,
                1.4,
                0.99,
                0.76,
                0.74,
                0.32,
                0.18,
                0.11,
                0.069,
                0.05,
                0.037,
                0.023,
                0.016,
                0.012,
                0.01,
                0.0088
            ]
        }
    }
}