{
    "limitClass": "ChannelLimit",
    "id": 2102134052,
    "reference": "2102.13405",
    "source": "https://doi.org/10.17182/hepdata.100161.v1/t3",
    "citeKey": "ATLAS:2021uiz",
    "collider": "LHC13",
    "experiment": "ATLAS",
    "luminosity": 139.0,
    "process": {
        "channels": [
            [
                "H",
                "gamgam"
            ],
            [
                "Htt",
                "gamgam"
            ],
            [
                "vbfH",
                "gamgam"
            ],
            [
                "HZ",
                "gamgam"
            ],
            [
                "HW",
                "gamgam"
            ]
        ]
    },
    "analysis": {
        "massResolution": {
            "absolute": 0.1,
            "relative": 0.015
        },
        "acceptances": [
            {
                "massDepAcceptance": [
                    0.356492221977162,
                    0.469818169421702
                ],
                "massGrid": [
                    160.0,
                    400.0
                ]
            },
            {
                "massDepAcceptance": [
                    0.261348341357199,
                    0.349600747330097
                ],
                "massGrid": [
                    160.0,
                    400.0
                ]
            },
            {
                "massDepAcceptance": [
                    0.330322780343908,
                    0.468544960826925
                ],
                "massGrid": [
                    160.0,
                    400.0
                ]
            },
            {
                "massDepAcceptance": [
                    0.276085063028736,
                    0.398144237828927
                ],
                "massGrid": [
                    160.0,
                    400.0
                ]
            },
            {
                "massDepAcceptance": [
                    0.276085063028736,
                    0.398144237828927
                ],
                "massGrid": [
                    160.0,
                    400.0
                ]
            }
        ],
        "grid": {
            "mass": [
                160.0,
                180.0,
                200.0,
                220.0,
                240.0,
                260.0,
                280.0,
                300.0,
                320.0,
                340.0,
                360.0,
                380.0,
                400.0
            ]
        },
        "limit": {
            "observed": [
                0.0121721,
                0.0046731,
                0.00440866,
                0.00454377,
                0.00318749,
                0.00185502,
                0.00150264,
                0.00257853,
                0.00103296,
                0.00174768,
                0.0012211,
                0.000881211,
                0.0010785
            ],
            "expected": [
                0.0078989,
                0.00531948,
                0.00413415,
                0.00337903,
                0.00283406,
                0.00240047,
                0.00205536,
                0.00178396,
                0.00157014,
                0.00139522,
                0.0012476,
                0.00112156,
                0.00101569
            ]
        }
    }
}