{
    "limitClass": "ChannelLimit",
    "id": 13001,
    "reference": "CMS-PAS-HIG-13-001",
    "source": "Fig. 5a",
    "citeKey": "CMS:2013uhr",
    "collider": "LHC8",
    "experiment": "CMS",
    "luminosity": 24.7,
    "process": {
        "channels": [
            [
                "H",
                "gamgam"
            ],
            [
                "vbfH",
                "gamgam"
            ],
            [
                "HZ",
                "gamgam"
            ],
            [
                "HW",
                "gamgam"
            ],
            [
                "Htt",
                "gamgam"
            ]
        ]
    },
    "constraints": [
        {
            "modelLike": "SMHiggsInterp",
            "process": "signal"
        }
    ],
    "normalization": {
        "reference": "SMHiggsInterp",
        "process": "signal"
    },
    "analysis": {
        "massResolution": {
            "absolute": 1.5,
            "relative": 0.0
        },
        "grid": {
            "mass": [
                110.0,
                110.5,
                111.0,
                111.5,
                112.0,
                112.5,
                113.0,
                113.5,
                114.0,
                114.5,
                115.0,
                115.5,
                116.0,
                116.5,
                117.0,
                117.5,
                118.0,
                118.5,
                119.0,
                119.5,
                120.0,
                120.5,
                121.0,
                121.5,
                122.0,
                122.5,
                123.0,
                123.5,
                124.0,
                124.5,
                125.0,
                125.5,
                126.0,
                126.5,
                127.0,
                127.5,
                128.0,
                128.5,
                129.0,
                129.5,
                130.0,
                130.5,
                131.0,
                131.5,
                132.0,
                132.5,
                133.0,
                133.5,
                134.0,
                134.5,
                135.0,
                135.5,
                136.0,
                136.5,
                137.0,
                137.5,
                138.0,
                138.5,
                139.0,
                139.5,
                140.0,
                140.5,
                141.0,
                141.5,
                142.0,
                142.5,
                143.0,
                143.5,
                144.0,
                144.5,
                145.0,
                145.5,
                146.0,
                146.5,
                147.0,
                147.5,
                148.0,
                148.5,
                149.0,
                149.5,
                150.0
            ]
        },
        "limit": {
            "observed": [
                0.65,
                0.679,
                0.705,
                0.709,
                0.681,
                0.626,
                0.535,
                0.423,
                0.34,
                0.309,
                0.299,
                0.31,
                0.316,
                0.317,
                0.308,
                0.288,
                0.271,
                0.284,
                0.321,
                0.405,
                0.535,
                0.701,
                0.794,
                0.85,
                0.896,
                0.935,
                1.04,
                1.17,
                1.224,
                1.246,
                1.262,
                1.264,
                1.253,
                1.234,
                1.193,
                1.125,
                0.816,
                0.419,
                0.325,
                0.288,
                0.286,
                0.294,
                0.324,
                0.357,
                0.398,
                0.436,
                0.472,
                0.516,
                0.616,
                0.79,
                0.883,
                0.929,
                0.955,
                0.957,
                0.955,
                0.935,
                0.89,
                0.706,
                0.497,
                0.375,
                0.343,
                0.344,
                0.377,
                0.408,
                0.432,
                0.454,
                0.468,
                0.474,
                0.475,
                0.464,
                0.437,
                0.405,
                0.364,
                0.329,
                0.336,
                0.408,
                0.551,
                0.76,
                1.024,
                1.191,
                1.279
            ],
            "expected": [
                0.577,
                0.573,
                0.569,
                0.563,
                0.558,
                0.553,
                0.548,
                0.543,
                0.538,
                0.533,
                0.529,
                0.525,
                0.521,
                0.517,
                0.512,
                0.507,
                0.502,
                0.497,
                0.494,
                0.491,
                0.488,
                0.485,
                0.482,
                0.48,
                0.478,
                0.477,
                0.477,
                0.476,
                0.476,
                0.476,
                0.476,
                0.475,
                0.474,
                0.473,
                0.474,
                0.477,
                0.48,
                0.48,
                0.481,
                0.481,
                0.485,
                0.489,
                0.492,
                0.495,
                0.497,
                0.5,
                0.502,
                0.504,
                0.506,
                0.509,
                0.513,
                0.516,
                0.52,
                0.524,
                0.529,
                0.533,
                0.537,
                0.542,
                0.546,
                0.55,
                0.554,
                0.56,
                0.566,
                0.573,
                0.579,
                0.586,
                0.593,
                0.6,
                0.608,
                0.616,
                0.624,
                0.632,
                0.644,
                0.655,
                0.667,
                0.681,
                0.697,
                0.713,
                0.728,
                0.742,
                0.757
            ]
        }
    }
}