{
    "limitClass": "ChannelLimit",
    "id": 2002087620,
    "reference": "DELPHI-2002-087 CONF 620",
    "source": "Fig 5",
    "citeKey": "ALEPHDELPHIL3andOPALCollaborations:2002sal",
    "collider": "LEP",
    "experiment": "LEPComb",
    "luminosity": 0,
    "process": {
        "channels": [
            [
                "eeHZ",
                "gamgam"
            ]
        ]
    },
    "analysis": {
        "massResolution": {
            "absolute": 3,
            "relative": 0
        },
        "grid": {
            "mass": [
                20.0,
                22.0,
                24.0,
                26.0,
                28.0,
                30.0,
                32.0,
                34.0,
                36.0,
                38.0,
                40.0,
                42.0,
                44.0,
                46.0,
                48.0,
                50.0,
                52.0,
                54.0,
                56.0,
                58.0,
                60.0,
                62.0,
                64.0,
                66.0,
                68.0,
                70.0,
                72.0,
                74.0,
                76.0,
                78.0,
                80.0,
                82.0,
                84.0,
                86.0,
                88.0,
                90.0,
                92.0,
                94.0,
                96.0,
                98.0,
                100.0,
                102.0,
                104.0,
                106.0,
                108.0,
                110.0,
                112.0,
                114.0,
                116.0
            ]
        },
        "limit": {
            "observed": [
                0.00425,
                0.00287,
                0.00345,
                0.00327,
                0.00373,
                0.00541,
                0.00696,
                0.00638,
                0.00584,
                0.00624,
                0.00769,
                0.00886,
                0.00896,
                0.00916,
                0.00916,
                0.0083,
                0.00821,
                0.00957,
                0.00989,
                0.0102,
                0.0106,
                0.0123,
                0.0106,
                0.00777,
                0.00896,
                0.0127,
                0.0147,
                0.0137,
                0.016,
                0.0171,
                0.0136,
                0.0122,
                0.0133,
                0.0139,
                0.0164,
                0.0197,
                0.022,
                0.0254,
                0.0293,
                0.0293,
                0.0274,
                0.0293,
                0.033,
                0.0373,
                0.0485,
                0.0736,
                0.118,
                0.187,
                0.578
            ],
            "expected": [
                0.00243,
                0.00265,
                0.00293,
                0.00327,
                0.00357,
                0.00394,
                0.00439,
                0.00496,
                0.00559,
                0.00624,
                0.00681,
                0.00736,
                0.00821,
                0.00906,
                0.00989,
                0.00978,
                0.00968,
                0.0102,
                0.0108,
                0.0115,
                0.0113,
                0.0114,
                0.0115,
                0.0119,
                0.0122,
                0.0123,
                0.0123,
                0.0126,
                0.0129,
                0.0132,
                0.0134,
                0.0139,
                0.0144,
                0.0152,
                0.0162,
                0.0173,
                0.0187,
                0.0204,
                0.0228,
                0.0254,
                0.0283,
                0.0309,
                0.0365,
                0.043,
                0.0553,
                0.0777,
                0.117,
                0.24,
                0.681
            ]
        }
    }
}