{
    "limitClass": "PairDecayLimit",
    "id": 181109689,
    "reference": "1811.09689",
    "source": "Fig. 5 (upper)",
    "citeKey": "CMS:2018ipl",
    "collider": "LHC13",
    "experiment": "CMS",
    "luminosity": 35.9,
    "process": {
        "production": [
            "H"
        ],
        "firstDecay": [
            "bb"
        ],
        "secondDecay": [
            "bb",
            "tautau",
            "WW",
            "ZZ",
            "gamgam"
        ]
    },
    "constraints": {
        "secondDaughter": [
            {
                "modelLike": "SMHiggs",
                "process": {
                    "channels": [
                        [
                            "none",
                            "bb"
                        ],
                        [
                            "none",
                            "tautau"
                        ],
                        [
                            "none",
                            "WW"
                        ],
                        [
                            "none",
                            "ZZ"
                        ],
                        [
                            "none",
                            "gamgam"
                        ]
                    ]
                }
            }
        ]
    },
    "analysis": {
        "equalDaughterMasses": true,
        "massResolution": {
            "firstDaughter": {
                "absolute": 30,
                "relative": 0
            },
            "secondDaughter": {
                "absolute": 10,
                "relative": 0
            },
            "mother": {
                "absolute": 15,
                "relative": 0.15
            }
        },
        "grid": {
            "massMother": [
                270.0,
                280.0,
                300.0,
                350.0,
                400.0,
                450.0,
                500.0,
                550.0,
                600.0,
                650.0,
                750.0,
                900.0,
                1000.0,
                1200.0,
                1400.0,
                1600.0,
                1800.0,
                2000.0,
                2500.0,
                3000.0
            ],
            "massFirstDaughter": [
                125.0
            ]
        },
        "limit": {
            "observed": [
                0.67882918767895,
                0.854432023449497,
                0.655457587234668,
                0.248744364638405,
                0.16142195928476,
                0.193784256476526,
                0.0559391887210313,
                0.0826059742729975,
                0.0498473073709937,
                0.0381320294545989,
                0.0365123354328184,
                0.0276290217144019,
                0.0179103311963215,
                0.0162864260753619,
                0.00760103401836541,
                0.00587658890450356,
                0.00416119765387689,
                0.00512938199390317,
                0.00272294936797801,
                0.00179087520341294
            ],
            "expected": [
                0.400844003115323,
                0.420715127366936,
                0.407555442432093,
                0.243848961842644,
                0.164364464836191,
                0.129096509210811,
                0.0880382922141008,
                0.0746996355641437,
                0.0479012531628291,
                0.0359259398721218,
                0.0290829037060034,
                0.0192789384295452,
                0.0186867526074773,
                0.0134886770582142,
                0.00799477179161592,
                0.00597133863603443,
                0.00481976092675618,
                0.00383278455664294,
                0.0026566245559064,
                0.00199864030916424
            ]
        }
    }
}