{
    "limitClass": "ChainDecayLimit",
    "id": 26703113,
    "reference": "ATLAS-CONF-2023-034",
    "source": "https://atlas.web.cern.ch/Atlas/GROUPS/PHYSICS/CONFNOTES/ATLAS-CONF-2023-034/ATLAS-CONF-2023-034.pdf",
    "citeKey": "ATLAS-CONF-2023-034-Fig5-bbH-vvbb",
    "collider": "LHC13",
    "experiment": "ATLAS",
    "luminosity": 140.0,
    "process": {
        "production": [
            "bbH"
        ],
        "chain": "Z",
        "decay": [
            "bb"
        ]
    },
    "analysis": {
        "massResolution": {
            "daughter": {
                "absolute": 25,
                "relative": 0.25
            },
            "mother": {
                "absolute": 25,
                "relative": 0.25
            }
        },
        "grid": {
            "massMother": [
                400.0,
                450.0,
                500.0,
                550.0,
                600.0,
                650.0,
                700.0,
                750.0,
                800.0,
                850.0,
                900.0,
                950.0,
                1000.0,
                1050.0,
                1100.0,
                1150.0,
                1200.0
            ],
            "massDaughter": [
                130.0,
                200.0,
                250.0,
                300.0,
                350.0,
                400.0,
                450.0,
                500.0,
                550.0,
                600.0,
                650.0,
                700.0,
                750.0,
                800.0
            ]
        },
        "limit": {
            "observed": [
                0.303,
                0.414,
                1000000.0,
                1000000.0,
                1000000.0,
                1000000.0,
                1000000.0,
                1000000.0,
                1000000.0,
                1000000.0,
                1000000.0,
                1000000.0,
                1000000.0,
                1000000.0,
                0.2115,
                0.2645,
                0.489,
                1000000.0,
                1000000.0,
                1000000.0,
                1000000.0,
                1000000.0,
                1000000.0,
                1000000.0,
                1000000.0,
                1000000.0,
                1000000.0,
                1000000.0,
                0.120,
                0.115,
                0.200,
                0.285,
                1000000.0,
                1000000.0,
                1000000.0,
                1000000.0,
                1000000.0,
                1000000.0,
                1000000.0,
                1000000.0,
                1000000.0,
                1000000.0,
                0.09025,
                0.0941,
                0.1458,
                0.1975,
                0.325,
                1000000.0,
                1000000.0,
                1000000.0,
                1000000.0,
                1000000.0,
                1000000.0,
                1000000.0,
                1000000.0,
                1000000.0,
                0.0605,
                0.0732,
                0.0916,
                0.110,
                0.1964,
                0.287,
                1000000.0,
                1000000.0,
                1000000.0,
                1000000.0,
                1000000.0,
                1000000.0,
                1000000.0,
                1000000.0,
                0.04565,
                0.0548,
                0.066225,
                0.07765,
                0.0636,
                0.1606,
                0.217,
                1000000.0,
                1000000.0,
                1000000.0,
                1000000.0,
                1000000.0,
                1000000.0,
                1000000.0,
                0.0308,
                0.0364,
                0.04085,
                0.0453,
                0.0570,
                0.0748,
                0.1259,
                0.177,
                1000000.0,
                1000000.0,
                1000000.0,
                1000000.0,
                1000000.0,
                1000000.0,
                0.02795,
                0.0259,
                0.032625,
                0.03935,
                0.0443,
                0.06045,
                0.08815,
                0.11585,
                0.11865,
                1000000.0,
                1000000.0,
                1000000.0,
                1000000.0,
                1000000.0,
                0.0251,
                0.0154,
                0.0244,
                0.0334,
                0.03975,
                0.0461,
                0.0504,
                0.0547,
                0.0575,
                0.0603,
                1000000.0,
                1000000.0,
                1000000.0,
                1000000.0,
                0.0223,
                0.011935,
                0.0202925,
                0.02865,
                0.032075,
                0.0355,
                0.040875,
                0.04625,
                0.045875,
                0.0455,
                0.05035,
                1000000.0,
                1000000.0,
                1000000.0,
                0.0195,
                0.00847,
                0.016185,
                0.0239,
                0.0244,
                0.0249,
                0.03135,
                0.0378,
                0.03425,
                0.0307,
                0.03555,
                0.0404,
                1000000.0,
                1000000.0,
                0.01645,
                0.00715,
                0.0135,
                0.01985,
                0.019425,
                0.0190,
                0.0239,
                0.0288,
                0.028975,
                0.02915,
                0.030925,
                0.0327,
                0.0451,
                1000000.0,
                0.0134,
                0.00583,
                0.010815,
                0.0158,
                0.01445,
                0.0131,
                0.01645,
                0.0198,
                0.0237,
                0.0276,
                0.0263,
                0.0250,
                0.0374,
                0.0498,
                0.01175,
                0.00508,
                0.009215,
                0.01335,
                0.01209,
                0.01083,
                0.0128325,
                0.014835,
                0.0186175,
                0.0224,
                0.022675,
                0.02295,
                0.030425,
                0.0379,
                0.0101,
                0.00433,
                0.007615,
                0.0109,
                0.00973,
                0.00856,
                0.009215,
                0.00987,
                0.013535,
                0.0172,
                0.01905,
                0.0209,
                0.02345,
                0.0260,
                0.00913,
                0.003975,
                0.006715,
                0.009455,
                0.0084975,
                0.09754,
                0.007835,
                0.00813,
                0.01099,
                0.01385,
                0.0153,
                0.01675,
                0.0187,
                0.02065,
                0.00816,
                0.00362,
                0.005815,
                0.00801,
                0.007265,
                0.00652,
                0.006455,
                0.0639,
                0.00851,
                0.0105,
                0.01155,
                0.0126,
                0.01395,
                0.0153
            ],
            "expected": [
                0.406,
                0.799,
                1000000.0,
                1000000.0,
                1000000.0,
                1000000.0,
                1000000.0,
                1000000.0,
                1000000.0,
                1000000.0,
                1000000.0,
                1000000.0,
                1000000.0,
                1000000.0,
                0.260,
                0.454,
                0.482,
                1000000.0,
                1000000.0,
                1000000.0,
                1000000.0,
                1000000.0,
                1000000.0,
                1000000.0,
                1000000.0,
                1000000.0,
                1000000.0,
                1000000.0,
                0.114,
                0.109,
                0.2035,
                0.298,
                1000000.0,
                1000000.0,
                1000000.0,
                1000000.0,
                1000000.0,
                1000000.0,
                1000000.0,
                1000000.0,
                1000000.0,
                1000000.0,
                0.08845,
                0.0767,
                0.129175,
                0.18165,
                0.218,
                1000000.0,
                1000000.0,
                1000000.0,
                1000000.0,
                1000000.0,
                1000000.0,
                1000000.0,
                1000000.0,
                1000000.0,
                0.0629,
                0.0444,
                0.05485,
                0.0653,
                0.12745,
                0.170,
                1000000.0,
                1000000.0,
                1000000.0,
                1000000.0,
                1000000.0,
                1000000.0,
                1000000.0,
                1000000.0,
                0.0528,
                0.03695,
                0.043025,
                0.0491,
                0.0565,
                0.099875,
                0.126,
                1000000.0,
                1000000.0,
                1000000.0,
                1000000.0,
                1000000.0,
                1000000.0,
                1000000.0,
                0.0427,
                0.0295,
                0.0312,
                0.0329,
                0.041875,
                0.0470,
                0.0750,
                0.103,
                1000000.0,
                1000000.0,
                1000000.0,
                1000000.0,
                1000000.0,
                1000000.0,
                0.0352,
                0.0254,
                0.026175,
                0.02695,
                0.0311,
                0.03665,
                0.05265,
                0.06865,
                0.0895,
                1000000.0,
                1000000.0,
                1000000.0,
                1000000.0,
                1000000.0,
                0.0277,
                0.0213,
                0.02115,
                0.0210,
                0.02365,
                0.0263,
                0.0303,
                0.0343,
                0.05515,
                0.0760,
                1000000.0,
                1000000.0,
                1000000.0,
                1000000.0,
                0.0233,
                0.0185,
                0.01815,
                0.0178,
                0.019775,
                0.02175,
                0.024625,
                0.0275,
                0.039475,
                0.05145,
                0.06695,
                1000000.0,
                1000000.0,
                1000000.0,
                0.0189,
                0.0157,
                0.01515,
                0.0146,
                0.0159,
                0.0172,
                0.01895,
                0.0207,
                0.02315,
                0.0269,
                0.0424,
                0.0579,
                1000000.0,
                1000000.0,
                0.0163,
                0.01365,
                0.0131,
                0.01255,
                0.013725,
                0.0149,
                0.016275,
                0.01765,
                0.01975,
                0.02185,
                0.03025,
                0.03865,
                0.0531,
                1000000.0,
                0.0137,
                0.0116,
                0.01105,
                0.0105,
                0.01155,
                0.0126,
                0.0136,
                0.0146,
                0.0157,
                0.0168,
                0.0181,
                0.0194,
                0.03385,
                0.0483,
                0.0124,
                0.010185,
                0.009725,
                0.009265,
                0.01018,
                0.011095,
                0.0117725,
                0.01245,
                0.013325,
                0.0142,
                0.0153,
                0.0164,
                0.024225,
                0.03205,
                0.0111,
                0.00877,
                0.00840,
                0.00803,
                0.00881,
                0.00959,
                0.009945,
                0.0103,
                0.01095,
                0.0116,
                0.0125,
                0.0134,
                0.0146,
                0.0158,
                0.01051,
                0.008065,
                0.00767,
                0.007275,
                0.007905,
                0.008535,
                0.0087875,
                0.00904,
                0.0096225,
                0.010205,
                0.0108675,
                0.01153,
                0.01244,
                0.01335,
                0.00992,
                0.00736,
                0.00694,
                0.00652,
                0.00700,
                0.00748,
                0.00763,
                0.00778,
                0.008295,
                0.00881,
                0.009235,
                0.00966,
                0.01028,
                0.0109
            ]
        }
    }
}
