{
    "limitClass": "ChannelLimit",
    "id": 1508014371,
    "reference": "1508.01437",
    "source": "https://doi.org/10.17182/hepdata.70526.v1/t2",
    "citeKey": "CMS:2015ooa",
    "collider": "LHC8",
    "experiment": "CMS",
    "luminosity": 19.3,
    "process": {
        "channels": [
            [
                "bbH",
                "mumu"
            ]
        ]
    },
    "analysis": {
        "massResolution": {
            "absolute": 0.1,
            "relative": 0.03
        },
        "grid": {
            "mass": [
                115.0,
                116.0,
                117.0,
                118.0,
                119.0,
                120.0,
                121.0,
                122.0,
                123.0,
                124.0,
                125.0,
                126.0,
                127.0,
                128.0,
                129.0,
                130.0,
                131.0,
                132.0,
                133.0,
                134.0,
                135.0,
                136.0,
                137.0,
                138.0,
                139.0,
                140.0,
                141.0,
                142.0,
                143.0,
                144.0,
                145.0,
                146.0,
                147.0,
                148.0,
                149.0,
                150.0,
                151.0,
                152.0,
                153.0,
                154.0,
                155.0,
                156.0,
                157.0,
                158.0,
                159.0,
                160.0,
                161.0,
                162.0,
                163.0,
                164.0,
                165.0,
                166.0,
                167.0,
                168.0,
                169.0,
                170.0,
                171.0,
                172.0,
                173.0,
                174.0,
                175.0,
                176.0,
                177.0,
                178.0,
                179.0,
                180.0,
                181.0,
                182.0,
                183.0,
                184.0,
                185.0,
                186.0,
                187.0,
                188.0,
                189.0,
                190.0,
                191.0,
                192.0,
                193.0,
                194.0,
                195.0,
                196.0,
                197.0,
                198.0,
                199.0,
                200.0,
                205.0,
                210.0,
                215.0,
                220.0,
                225.0,
                230.0,
                235.0,
                240.0,
                245.0,
                250.0,
                255.0,
                260.0,
                265.0,
                270.0,
                275.0,
                280.0,
                285.0,
                290.0,
                295.0,
                300.0,
                305.0,
                310.0,
                315.0,
                320.0,
                325.0,
                330.0,
                335.0,
                340.0,
                345.0,
                350.0,
                355.0,
                360.0,
                365.0,
                370.0,
                375.0,
                380.0,
                385.0,
                390.0,
                395.0,
                400.0,
                405.0,
                410.0,
                415.0,
                420.0,
                425.0,
                430.0,
                435.0,
                440.0,
                445.0,
                450.0,
                455.0,
                460.0,
                465.0,
                470.0,
                475.0,
                480.0,
                485.0,
                490.0,
                495.0,
                500.0
            ]
        },
        "limit": {
            "observed": [
                0.04676,
                0.05273,
                0.05751,
                0.06291,
                0.06988,
                0.07756,
                0.0719,
                0.06419,
                0.05751,
                0.05319,
                0.05054,
                0.05077,
                0.05029,
                0.04677,
                0.04001,
                0.03186,
                0.0291,
                0.02778,
                0.02824,
                0.02973,
                0.03128,
                0.03118,
                0.03077,
                0.02969,
                0.02741,
                0.02449,
                0.02512,
                0.0226,
                0.02255,
                0.02284,
                0.02344,
                0.0239,
                0.02478,
                0.02592,
                0.02786,
                0.03076,
                0.0322,
                0.03269,
                0.0324,
                0.03146,
                0.03002,
                0.02899,
                0.02756,
                0.02577,
                0.02388,
                0.02205,
                0.02085,
                0.02,
                0.01969,
                0.02031,
                0.02154,
                0.02222,
                0.02354,
                0.02467,
                0.02458,
                0.02264,
                0.01908,
                0.01641,
                0.01532,
                0.0155,
                0.01616,
                0.0164,
                0.01606,
                0.01672,
                0.01743,
                0.01781,
                0.01725,
                0.01685,
                0.01649,
                0.01623,
                0.01639,
                0.01684,
                0.0174,
                0.01735,
                0.01634,
                0.01513,
                0.01418,
                0.01332,
                0.01256,
                0.01198,
                0.01171,
                0.01182,
                0.01216,
                0.01224,
                0.01202,
                0.01151,
                0.01,
                0.00903,
                0.00655,
                0.00551,
                0.00787,
                0.01256,
                0.01482,
                0.01296,
                0.0105,
                0.00805,
                0.00638,
                0.00588,
                0.00633,
                0.00581,
                0.0051,
                0.00591,
                0.00719,
                0.0077,
                0.00841,
                0.00823,
                0.00683,
                0.0065,
                0.00643,
                0.00573,
                0.00668,
                0.00825,
                0.00778,
                0.00662,
                0.00512,
                0.00463,
                0.00445,
                0.00479,
                0.00528,
                0.00543,
                0.00372,
                0.00456,
                0.00478,
                0.00546,
                0.00559,
                0.00574,
                0.00533,
                0.00489,
                0.00478,
                0.00472,
                0.00456,
                0.00425,
                0.00371,
                0.00346,
                0.00328,
                0.00351,
                0.00355,
                0.00339,
                0.00492,
                0.00481,
                0.00304,
                0.00317,
                0.00332,
                0.00333,
                0.00295,
                0.00343
            ],
            "expected": [
                0.05484,
                0.05707,
                0.0598,
                0.06283,
                0.06614,
                0.07044,
                0.06565,
                0.06108,
                0.0567,
                0.05265,
                0.04892,
                0.04664,
                0.04369,
                0.04063,
                0.03697,
                0.03278,
                0.03298,
                0.03316,
                0.03333,
                0.03348,
                0.03361,
                0.03267,
                0.03154,
                0.03023,
                0.02874,
                0.02709,
                0.02687,
                0.02683,
                0.02698,
                0.02712,
                0.02724,
                0.02645,
                0.02585,
                0.02508,
                0.02451,
                0.02412,
                0.02323,
                0.02236,
                0.02151,
                0.02069,
                0.01988,
                0.02003,
                0.02016,
                0.02043,
                0.02054,
                0.02079,
                0.02022,
                0.01967,
                0.01927,
                0.01874,
                0.01824,
                0.01819,
                0.01814,
                0.01815,
                0.01803,
                0.01803,
                0.01698,
                0.01608,
                0.01521,
                0.01459,
                0.01398,
                0.01409,
                0.0142,
                0.0145,
                0.0149,
                0.01527,
                0.01497,
                0.01477,
                0.01466,
                0.01455,
                0.01462,
                0.01434,
                0.01423,
                0.0141,
                0.01396,
                0.01391,
                0.0137,
                0.01357,
                0.01336,
                0.01323,
                0.01317,
                0.01263,
                0.01216,
                0.01172,
                0.01129,
                0.0108,
                0.01052,
                0.01043,
                0.01034,
                0.01052,
                0.01107,
                0.01081,
                0.01064,
                0.01027,
                0.0097,
                0.00937,
                0.00884,
                0.00832,
                0.00804,
                0.00769,
                0.00768,
                0.00763,
                0.00762,
                0.00767,
                0.00778,
                0.0073,
                0.00633,
                0.00598,
                0.00572,
                0.00555,
                0.00544,
                0.00543,
                0.00539,
                0.00546,
                0.00552,
                0.00567,
                0.00543,
                0.00525,
                0.00506,
                0.00492,
                0.00477,
                0.00473,
                0.0047,
                0.00469,
                0.0047,
                0.00473,
                0.00459,
                0.00446,
                0.00435,
                0.00424,
                0.00415,
                0.00406,
                0.00398,
                0.00393,
                0.0039,
                0.00392,
                0.00385,
                0.00379,
                0.00373,
                0.00371,
                0.00372,
                0.00373,
                0.00374,
                0.00378,
                0.00384,
                0.00391
            ]
        }
    }
}