{
    "limitClass": "ChannelLimit",
    "id": 24021109817,
    "reference": "2402.11098",
    "source": "https://doi.org/10.17182/hepdata.132367.v2/t55",
    "citeKey": "CMS:2024ulc",
    "collider": "LHC13",
    "experiment": "CMS",
    "luminosity": 138.0,
    "process": {
        "channels": [
            [
                "HZ",
                "mumu"
            ]
        ]
    },
    "analysis": {
        "massResolution": {
            "absolute": 0.1,
            "relative": 0.03
        },
        "grid": {
            "mass": [
                15.0,
                15.5,
                16.0,
                16.5,
                17.0,
                17.5,
                18.0,
                18.5,
                19.0,
                19.5,
                20.0,
                20.5,
                21.0,
                21.5,
                22.0,
                22.5,
                23.0,
                23.5,
                24.0,
                24.5,
                25.0,
                25.5,
                26.0,
                26.5,
                27.0,
                27.5,
                28.0,
                28.5,
                29.0,
                29.5,
                30.0,
                30.5,
                31.0,
                31.5,
                32.0,
                32.5,
                33.0,
                33.5,
                34.0,
                34.5,
                35.0,
                35.5,
                36.0,
                36.5,
                37.0,
                37.5,
                38.0,
                38.5,
                39.0,
                39.5,
                40.0,
                40.5,
                41.0,
                41.5,
                42.0,
                42.5,
                43.0,
                43.5,
                44.0,
                44.5,
                45.0,
                45.5,
                46.0,
                46.5,
                47.0,
                47.5,
                48.0,
                48.5,
                49.0,
                49.5,
                50.0,
                50.5,
                51.0,
                51.5,
                52.0,
                52.5,
                53.0,
                53.5,
                54.0,
                54.5,
                55.0,
                55.5,
                56.0,
                56.5,
                57.0,
                57.5,
                58.0,
                58.5,
                59.0,
                59.5,
                60.0,
                60.5,
                61.0,
                61.5,
                62.0,
                62.5,
                63.0,
                63.5,
                64.0,
                64.5,
                65.0,
                65.5,
                66.0,
                66.5,
                67.0,
                67.5,
                68.0,
                68.5,
                69.0,
                69.5,
                70.0,
                70.5,
                71.0,
                71.5,
                72.0,
                72.5,
                73.0,
                73.5,
                74.0,
                74.5,
                75.0,
                76.0,
                107.0,
                108.0,
                111.0,
                113.5,
                116.0,
                118.5
            ]
        },
        "limit": {
            "observed": [
                0.056589,
                0.030994,
                0.031695,
                0.026424,
                0.02049,
                0.036925,
                0.031372,
                0.03377,
                0.032916,
                0.027527,
                0.04444,
                0.037764,
                0.026861,
                0.022306,
                0.018125,
                0.015047,
                0.019417,
                0.033791,
                0.049822,
                0.033089,
                0.019588,
                0.027599,
                0.022044,
                0.025583,
                0.022202,
                0.010747,
                0.012083,
                0.013617,
                0.014164,
                0.019608,
                0.019826,
                0.022905,
                0.023879,
                0.018853,
                0.024673,
                0.014829,
                0.01332,
                0.010663,
                0.0091969,
                0.011364,
                0.011388,
                0.011677,
                0.011774,
                0.010394,
                0.010194,
                0.0086747,
                0.0066291,
                0.0090745,
                0.012015,
                0.009392,
                0.0091554,
                0.0089414,
                0.0088305,
                0.0081763,
                0.0097412,
                0.011236,
                0.012554,
                0.011743,
                0.013517,
                0.01497,
                0.013807,
                0.012254,
                0.0076103,
                0.0065,
                0.0072105,
                0.0064588,
                0.0061592,
                0.0054682,
                0.0058891,
                0.0061764,
                0.00757,
                0.0088242,
                0.008128,
                0.0069169,
                0.0055525,
                0.0047036,
                0.0041159,
                0.0039065,
                0.0033693,
                0.0031876,
                0.003024,
                0.0027904,
                0.0031746,
                0.0038212,
                0.0048426,
                0.0039618,
                0.0059519,
                0.004624,
                0.0036292,
                0.0035272,
                0.003734,
                0.0045046,
                0.0042376,
                0.0053234,
                0.0042171,
                0.0039807,
                0.0040365,
                0.003894,
                0.0051352,
                0.0052561,
                0.0070329,
                0.0072621,
                0.0061371,
                0.0068213,
                0.0064186,
                0.0067033,
                0.0066171,
                0.0065775,
                0.0059774,
                0.0067134,
                0.0069072,
                0.0069303,
                0.0082088,
                0.0088267,
                0.010502,
                0.012608,
                0.011191,
                0.012908,
                0.0090306,
                0.012308,
                0.01283,
                10000.0,
                10000.0,
                0.0069441,
                0.0060213,
                0.0068202,
                0.003811,
                0.0030114
            ],
            "expected": [
                0.04178,
                0.038665,
                0.037758,
                0.03686,
                0.035353,
                0.035097,
                0.033661,
                0.03119,
                0.029915,
                0.028188,
                0.028483,
                0.027393,
                0.026344,
                0.025336,
                0.025192,
                0.024227,
                0.024064,
                0.023142,
                0.02367,
                0.021404,
                0.020585,
                0.020164,
                0.019746,
                0.019626,
                0.018924,
                0.017702,
                0.017594,
                0.016965,
                0.016847,
                0.016244,
                0.016117,
                0.015568,
                0.015885,
                0.015344,
                0.015612,
                0.01489,
                0.014567,
                0.014249,
                0.013936,
                0.013794,
                0.013485,
                0.013025,
                0.012732,
                0.012298,
                0.012019,
                0.011475,
                0.011084,
                0.010707,
                0.010585,
                0.0099898,
                0.0098766,
                0.0095683,
                0.0094826,
                0.0093929,
                0.0092997,
                0.009203,
                0.0091034,
                0.0088191,
                0.008808,
                0.0086183,
                0.0085146,
                0.0082487,
                0.0079912,
                0.0078168,
                0.0077912,
                0.0075479,
                0.0074489,
                0.0072163,
                0.0071193,
                0.0070213,
                0.0069224,
                0.0069662,
                0.0068885,
                0.0067545,
                0.0067302,
                0.0065975,
                0.0065689,
                0.0064873,
                0.0064052,
                0.0063696,
                0.006331,
                0.0062455,
                0.0062461,
                0.0062419,
                0.0062332,
                0.006141,
                0.0062419,
                0.0061077,
                0.0060126,
                0.005989,
                0.0060311,
                0.0060308,
                0.0060604,
                0.0060856,
                0.0060752,
                0.0060007,
                0.0060468,
                0.006029,
                0.0060952,
                0.0060711,
                0.0062098,
                0.0061513,
                0.0061186,
                0.0060842,
                0.0061487,
                0.0061091,
                0.0061642,
                0.0060964,
                0.0062579,
                0.0063194,
                0.0067474,
                0.0068097,
                0.0072251,
                0.0076218,
                0.0083852,
                0.0088181,
                0.00853,
                0.0085171,
                0.0078648,
                0.0079691,
                0.0081024,
                10000.0,
                10000.0,
                0.0065638,
                0.0057766,
                0.0053838,
                0.0050594,
                0.0046959
            ]
        }
    }
}