{
    "limitClass": "PairDecayLimit",
    "id": 2110003132,
    "reference": "2110.00313",
    "source": "https://doi.org/10.17182/hepdata.107761.v1/t4",
    "citeKey": "ATLAS:2021hbr",
    "collider": "LHC13",
    "experiment": "ATLAS",
    "luminosity": 139.0,
    "process": {
        "production": [
            "H",
            "vbfH",
            "HZ",
            "HW"
        ],
        "firstDecay": [
            "mumu"
        ],
        "secondDecay": [
            "bb"
        ]
    },
    "constraints": {
        "mother": [
            {
                "modelLike": "SMHiggs",
                "process": {
                    "channels": [
                        [
                            "H",
                            "none"
                        ],
                        [
                            "vbfH",
                            "none"
                        ],
                        [
                            "HZ",
                            "none"
                        ],
                        [
                            "HW",
                            "none"
                        ]
                    ]
                }
            }
        ],
        "firstDaughter": [
            {
                "CPValue": "odd"
            }
        ],
        "secondDaughter": [
            {
                "CPValue": "odd"
            }
        ]
    },
    "analysis": {
        "equalDaughterMasses": true,
        "massResolution": {
            "firstDaughter": {
                "absolute": 0.08,
                "relative": 0.019
            },
            "secondDaughter": {
                "absolute": 5,
                "relative": 0.1
            },
            "mother": {
                "absolute": 20,
                "relative": 0
            }
        },
        "grid": {
            "massMother": [
                125.0
            ],
            "massFirstDaughter": [
                16.0,
                17.0,
                18.0,
                19.0,
                20.0,
                21.0,
                22.0,
                23.0,
                24.0,
                25.0,
                26.0,
                27.0,
                28.0,
                29.0,
                30.0,
                31.0,
                32.0,
                33.0,
                34.0,
                35.0,
                36.0,
                37.0,
                38.0,
                39.0,
                40.0,
                41.0,
                42.0,
                43.0,
                44.0,
                45.0,
                46.0,
                47.0,
                48.0,
                49.0,
                50.0,
                51.0,
                52.0,
                53.0,
                54.0,
                55.0,
                56.0,
                57.0,
                58.0,
                59.0,
                60.0,
                61.0,
                62.0
            ]
        },
        "limit": {
            "observed": [
                0.0190143416128981,
                0.014882531207283,
                0.0088346121165253,
                0.00578172455265534,
                0.00496833395586635,
                0.00365891417659679,
                0.00399733651295302,
                0.00381440641531876,
                0.00197659497204812,
                0.0033269965050689,
                0.00291358839257156,
                0.00287624452045889,
                0.00237339371857287,
                0.00428710395639326,
                0.00554774584544827,
                0.00569633604345421,
                0.00385447988132667,
                0.00512690585771797,
                0.00782125629624981,
                0.00734809514997301,
                0.00800669837717414,
                0.00728110892890442,
                0.00522544561653566,
                0.00579440273573894,
                0.00839343026787728,
                0.00585344143905362,
                0.00498702008391868,
                0.00941866005813033,
                0.00392673133290721,
                0.00588972564213244,
                0.00698638847886398,
                0.00522606060302853,
                0.00549887807259245,
                0.00614584386308251,
                0.00751764219538953,
                0.0152848742935741,
                0.0160155255537466,
                0.00898145196835926,
                0.00606627407223692,
                0.00432534192425324,
                0.00371734735474927,
                0.00280049237653437,
                0.00610776200717841,
                0.00635266855129709,
                0.00621136357789888,
                0.00499488623422891,
                0.00193765213505401
            ],
            "expected": [
                0.0157541089876273,
                0.0109653983943297,
                0.00612072403018179,
                0.0053486794483744,
                0.00385115422359989,
                0.00367514508934299,
                0.00348325984223962,
                0.0039330373097917,
                0.00316741224083672,
                0.00326965611060758,
                0.00302665602461677,
                0.00286685888044476,
                0.0031861220222157,
                0.00393271089388396,
                0.00388744315734404,
                0.00397698992136997,
                0.00389170075614077,
                0.00404333277195371,
                0.00413329110386332,
                0.00403155814594808,
                0.00417149122640067,
                0.00445463573837933,
                0.00480843746772242,
                0.00504303116142235,
                0.00475209524364567,
                0.00521470700623724,
                0.00541471953637705,
                0.00576275458468323,
                0.00483795681937976,
                0.00538590978451916,
                0.00563956805949779,
                0.00580405329301153,
                0.00574491997639025,
                0.00582628742006113,
                0.00573337715298578,
                0.00686589843291647,
                0.00585240069268109,
                0.00605804271456324,
                0.00569160537812451,
                0.00544215739528932,
                0.00588731300281429,
                0.00589611204032753,
                0.00538742359742466,
                0.00428515965294275,
                0.00387431556105411,
                0.00362203958648482,
                0.00232004600564982
            ]
        }
    }
}