{
    "limitClass": "PairDecayLimit",
    "id": 211203161,
    "reference": "2112.03161",
    "source": "Fig.7(a)",
    "citeKey": "CMS:2021roc",
    "collider": "LHC13",
    "experiment": "CMS",
    "luminosity": 138.0,
    "process": {
        "production": [
            "H"
        ],
        "firstDecay": [
            "bb"
        ],
        "secondDecay": [
            "WW"
        ]
    },
    "analysis": {
        "equalDaughterMasses": true,
        "massResolution": {
            "firstDaughter": {
                "absolute": 6,
                "relative": 0.05
            },
            "secondDaughter": {
                "absolute": 30,
                "relative": 0
            },
            "mother": {
                "absolute": 50,
                "relative": 0.05
            }
        },
        "grid": {
            "massMother": [
                800.0,
                900.0,
                1000.0,
                1100.0,
                1200.0,
                1300.0,
                1400.0,
                1500.0,
                1600.0,
                1700.0,
                1800.0,
                1900.0,
                2000.0,
                2100.0,
                2200.0,
                2300.0,
                2400.0,
                2500.0,
                2600.0,
                2700.0,
                2800.0,
                2900.0,
                3000.0,
                3100.0,
                3200.0,
                3300.0,
                3400.0,
                3500.0,
                3600.0,
                3700.0,
                3800.0,
                3900.0,
                4000.0,
                4100.0,
                4200.0,
                4300.0,
                4400.0,
                4500.0
            ],
            "massFirstDaughter": [
                125.0
            ]
        },
        "limit": {
            "observed": [
                0.024528,
                0.0095925,
                0.0047897,
                0.003412,
                0.0026731,
                0.0027118,
                0.004098,
                0.0051152,
                0.0033314,
                0.0018524,
                0.0014377,
                0.0013988,
                0.0015003,
                0.0016487,
                0.0017332,
                0.0018388,
                0.0019041,
                0.0018471,
                0.0016354,
                0.0014237,
                0.0012476,
                0.0010629,
                0.0009238,
                0.00087063,
                0.00086477,
                0.00087187,
                0.00087752,
                0.00087476,
                0.00086268,
                0.0008451,
                0.00082539,
                0.00080585,
                0.00079,
                0.00078436,
                0.0007883,
                0.0007925,
                0.00079002,
                0.00078119
            ],
            "expected": [
                0.02478,
                0.014343,
                0.009613,
                0.0071106,
                0.0055542,
                0.0045319,
                0.0038147,
                0.0032959,
                0.0029068,
                0.002594,
                0.002327,
                0.002121,
                0.0019531,
                0.0018158,
                0.0017014,
                0.0015945,
                0.0014954,
                0.0014114,
                0.0013351,
                0.0012741,
                0.0012131,
                0.0011673,
                0.0011215,
                0.0010834,
                0.0010452,
                0.0010147,
                0.00099182,
                0.00096893,
                0.00093842,
                0.00092316,
                0.0009079,
                0.00089264,
                0.00087738,
                0.00086212,
                0.00086212,
                0.00084686,
                0.00083923,
                0.0008316
            ]
        }
    }
}