{
    "limitClass": "ChannelLimit",
    "id": 141266632,
    "reference": "1412.6663",
    "source": "https://doi.org/10.17182/hepdata.68153.v1/t2",
    "citeKey": "ATLAS:2014otc",
    "collider": "LHC8",
    "experiment": "ATLAS",
    "luminosity": 19.5,
    "process": {
        "channels": [
            [
                "Hpmtb",
                "taunu"
            ]
        ]
    },
    "analysis": {
        "massResolution": {
            "absolute": 5,
            "relative": 0.2
        },
        "grid": {
            "mass": [
                180.0,
                190.0,
                200.0,
                225.0,
                250.0,
                275.0,
                300.0,
                350.0,
                400.0,
                450.0,
                500.0,
                550.0,
                600.0,
                750.0,
                1000.0
            ]
        },
        "limit": {
            "observed": [
                0.761,
                0.636,
                0.474,
                0.308,
                0.241,
                0.206,
                0.171,
                0.1,
                0.0636,
                0.0407,
                0.0241,
                0.0162,
                0.0117,
                0.00634,
                0.00446
            ],
            "expected": [
                0.555,
                0.504,
                0.471,
                0.367,
                0.304,
                0.232,
                0.171,
                0.0952,
                0.0604,
                0.0427,
                0.0314,
                0.0227,
                0.0174,
                0.00977,
                0.00679
            ]
        }
    }
}