{
    "limitClass": "PairDecayLimit",
    "id": 150600285,
    "reference": "1506.00285",
    "source": "Fig. 14c",
    "citeKey": "ATLAS:2015zug",
    "collider": "LHC8",
    "experiment": "ATLAS",
    "luminosity": 19.5,
    "process": {
        "production": [
            "H",
            "vbfH"
        ],
        "firstDecay": [
            "bb"
        ],
        "secondDecay": [
            "bb"
        ]
    },
    "analysis": {
        "equalDaughterMasses": true,
        "massResolution": {
            "firstDaughter": {
                "absolute": 25.0,
                "relative": 0
            },
            "secondDaughter": {
                "absolute": 25.0,
                "relative": 0
            },
            "mother": {
                "absolute": 15,
                "relative": 0.15
            }
        },
        "grid": {
            "massMother": [
                500.0,
                520.0,
                540.0,
                560.0,
                580.0,
                600.0,
                620.0,
                640.0,
                660.0,
                680.0,
                700.0,
                720.0,
                740.0,
                760.0,
                780.0,
                800.0,
                820.0,
                840.0,
                860.0,
                880.0,
                900.0,
                920.0,
                940.0,
                960.0,
                980.0,
                1000.0,
                1050.0,
                1100.0,
                1200.0,
                1300.0,
                1400.0,
                1500.0
            ],
            "massFirstDaughter": [
                125.0
            ]
        },
        "limit": {
            "observed": [
                0.05155,
                0.06,
                0.04045,
                0.03175,
                0.02866,
                0.0233,
                0.01973,
                0.01448,
                0.01288,
                0.01284,
                0.01233,
                0.01163,
                0.01081,
                0.01072,
                0.01303,
                0.01482,
                0.01539,
                0.01386,
                0.0105,
                0.00674,
                0.0048,
                0.00426,
                0.0038,
                0.00363,
                0.00358,
                0.00361,
                0.00349,
                0.00378,
                0.00472,
                0.00242,
                0.00251,
                0.00277
            ],
            "expected": [
                0.05692,
                0.04709,
                0.04034,
                0.03222,
                0.02657,
                0.02263,
                0.02031,
                0.01818,
                0.01651,
                0.01491,
                0.0133,
                0.01219,
                0.01126,
                0.01056,
                0.00976,
                0.00915,
                0.00869,
                0.00819,
                0.00784,
                0.00744,
                0.00696,
                0.0068,
                0.00637,
                0.00619,
                0.00603,
                0.00574,
                0.00521,
                0.0053,
                0.0053,
                0.00428,
                0.00393,
                0.00372
            ]
        }
    }
}