{
    "limitClass": "ChannelLimit",
    "id": 1710072351,
    "reference": "1710.07235",
    "source": "https://doi.org/10.17182/hepdata.79779.v1/t8",
    "citeKey": "ATLAS:2017jag",
    "collider": "LHC13",
    "experiment": "ATLAS",
    "luminosity": 36.1,
    "process": {
        "channels": [
            [
                "ggH",
                "WW"
            ]
        ]
    },
    "analysis": {
        "massResolution": {
            "absolute": 5,
            "relative": 0.1
        },
        "grid": {
            "mass": [
                300.0,
                400.0,
                500.0,
                600.0,
                700.0,
                750.0,
                800.0,
                900.0,
                1000.0,
                1200.0,
                1400.0,
                1600.0,
                1800.0,
                2000.0,
                2200.0,
                2400.0,
                2600.0,
                2800.0,
                3000.0
            ]
        },
        "limit": {
            "observed": [
                11.5005,
                1.11249,
                0.990869,
                0.0999422,
                0.0891199,
                0.0943998,
                0.0600591,
                0.0545829,
                0.0421413,
                0.00920146,
                0.0078511,
                0.0056153,
                0.00534015,
                0.00379731,
                0.00250306,
                0.00233196,
                0.0016986,
                0.00192172,
                0.00175309
            ],
            "expected": [
                9.77647,
                1.8664,
                0.692075,
                0.182622,
                0.0929292,
                0.0869161,
                0.055875,
                0.0413264,
                0.0291425,
                0.0172472,
                0.0101931,
                0.00680121,
                0.00538464,
                0.00353232,
                0.00279034,
                0.00235855,
                0.00184047,
                0.00151176,
                0.00129222
            ]
        }
    }
}