{
    "limitClass": "ChannelLimit",
    "id": 401022,
    "reference": "hep-ex/0401022",
    "source": "Fig 14",
    "citeKey": "DELPHI:2003azm",
    "collider": "LEP",
    "experiment": "DELPHI",
    "luminosity": 0.59,
    "process": {
        "channels": [
            [
                "eeHZ",
                "inv"
            ]
        ]
    },
    "analysis": {
        "massResolution": {
            "absolute": 3,
            "relative": 0
        },
        "grid": {
            "mass": [
                40.0,
                42.0,
                44.0,
                46.0,
                48.0,
                50.0,
                52.0,
                54.0,
                56.0,
                58.0,
                60.0,
                62.0,
                64.0,
                68.0,
                70.0,
                72.0,
                74.0,
                76.0,
                78.0,
                80.0,
                82.0,
                84.0,
                86.0,
                88.0,
                90.0,
                92.0,
                94.0,
                96.0,
                98.0,
                100.0,
                102.0,
                104.0,
                106.0,
                108.0,
                110.0,
                112.0,
                114.0
            ]
        },
        "limit": {
            "observed": [
                0.0827,
                0.0964,
                0.099,
                0.0987,
                0.101,
                0.106,
                0.106,
                0.115,
                0.12,
                0.12,
                0.12,
                0.115,
                0.114,
                0.128,
                0.136,
                0.14,
                0.16,
                0.167,
                0.16,
                0.176,
                0.183,
                0.205,
                0.227,
                0.22,
                0.228,
                0.242,
                0.292,
                0.382,
                0.425,
                0.507,
                0.582,
                0.606,
                0.622,
                0.627,
                0.721,
                0.962,
                1.88
            ],
            "expected": [
                0.118,
                0.12,
                0.121,
                0.124,
                0.13,
                0.13,
                0.136,
                0.14,
                0.143,
                0.147,
                0.147,
                0.155,
                0.162,
                0.172,
                0.174,
                0.18,
                0.186,
                0.198,
                0.208,
                0.23,
                0.248,
                0.259,
                0.294,
                0.34,
                0.365,
                0.388,
                0.417,
                0.446,
                0.466,
                0.478,
                0.492,
                0.56,
                0.602,
                0.735,
                0.926,
                1.29,
                2.32
            ]
        }
    }
}