{
    "limitClass": "ChannelLimit",
    "id": 7070373,
    "reference": "0707.0373",
    "source": "Fig 5",
    "citeKey": "OPAL:2007qwz",
    "collider": "LEP",
    "experiment": "OPAL",
    "luminosity": 0.66,
    "process": {
        "channels": [
            [
                "eeHZ",
                "inv"
            ]
        ]
    },
    "analysis": {
        "massResolution": {
            "absolute": 3,
            "relative": 0
        },
        "grid": {
            "mass": [
                5.0,
                10.0,
                15.0,
                20.0,
                25.0,
                30.0,
                35.0,
                40.0,
                45.0,
                50.0,
                55.0,
                60.0,
                65.0,
                70.0,
                75.0,
                80.0,
                85.0,
                90.0,
                95.0,
                100.0,
                105.0,
                110.0,
                115.0
            ]
        },
        "limit": {
            "observed": [
                0.00102,
                0.00172,
                0.0023,
                0.00329,
                0.00468,
                0.00711,
                0.0113,
                0.0174,
                0.0229,
                0.0355,
                0.0598,
                0.103,
                0.17,
                0.263,
                0.324,
                0.331,
                0.317,
                0.324,
                0.324,
                0.367,
                0.482,
                1.37,
                7.89
            ],
            "expected": [
                0.00116,
                0.00191,
                0.00256,
                0.00343,
                0.00459,
                0.00614,
                0.00858,
                0.013,
                0.0202,
                0.0347,
                0.0561,
                0.0946,
                0.138,
                0.166,
                0.184,
                0.205,
                0.247,
                0.317,
                0.399,
                0.492,
                0.645,
                1.23,
                7.89
            ]
        }
    }
}