{
    "limitClass": "ChannelLimit",
    "id": 501033,
    "reference": "hep-ex/0501033",
    "source": "Fig 6c",
    "citeKey": "L3:2004svb",
    "collider": "LEP",
    "experiment": "L3",
    "luminosity": 0.63,
    "process": {
        "channels": [
            [
                "eeHZ",
                "inv"
            ]
        ]
    },
    "analysis": {
        "massResolution": {
            "absolute": 3,
            "relative": 0
        },
        "grid": {
            "mass": [
                50.0,
                55.0,
                60.0,
                65.0,
                70.0,
                75.0,
                80.0,
                85.0,
                90.0,
                95.0,
                100.0,
                105.0,
                110.0
            ]
        },
        "limit": {
            "observed": [
                0.0925,
                0.0959,
                0.0976,
                0.13,
                0.135,
                0.151,
                0.192,
                0.211,
                0.243,
                0.259,
                0.317,
                0.529,
                0.752
            ],
            "expected": [
                0.104,
                0.111,
                0.116,
                0.13,
                0.146,
                0.158,
                0.18,
                0.217,
                0.269,
                0.339,
                0.392,
                0.502,
                0.774
            ]
        }
    }
}