{
    "limitClass": "ChannelLimit",
    "id": 180204329,
    "reference": "1802.04329",
    "source": "https://arxiv.org/abs/1802.04329",
    "citeKey": "ATLAS:2018mgv",
    "collider": "LHC13",
    "experiment": "ATLAS",
    "luminosity": 36.1,
    "process": {
        "channels": [
            [
                "HZ",
                "cc"
            ]
        ]
    },
    "constraints": [
        {
            "modelLike": "SMHiggs",
            "process": {
                "channels": [
                    [
                        "none",
                        "bb"
                    ],
                    [
                        "none",
                        "cc"
                    ]
                ]
            }
        }
    ],
    "analysis": {
        "massResolution": {
            "relative": 0,
            "absolute": 40
        },
        "grid": {
            "mass": [
                125.0
            ]
        },
        "limit": {
            "observed": [
                2.7
            ],
            "expected": [
                3.9
            ]
        }
    }
}