{
    "limitClass": "ChannelLimit",
    "id": 24021109824,
    "reference": "2402.11098",
    "source": "https://doi.org/10.17182/hepdata.132367.v2/t52",
    "citeKey": "CMS:2024ulc",
    "collider": "LHC13",
    "experiment": "CMS",
    "luminosity": 138.0,
    "process": {
        "channels": [
            [
                "HW",
                "ee"
            ]
        ]
    },
    "analysis": {
        "massResolution": {
            "absolute": 0.1,
            "relative": 0.03
        },
        "grid": {
            "mass": [
                131.0,
                133.5,
                136.0,
                138.5,
                141.0,
                143.5,
                146.0,
                148.5,
                151.0,
                153.5,
                156.0,
                158.5,
                161.0,
                163.5,
                166.0,
                168.5,
                171.0,
                173.5,
                176.0,
                178.5,
                181.0,
                183.5,
                186.0,
                188.5,
                191.0,
                193.5,
                196.0,
                198.5,
                201.0,
                203.5,
                206.0,
                208.5,
                211.0,
                213.5,
                216.0,
                218.5,
                221.0,
                223.5,
                226.0,
                228.5,
                231.0,
                233.5,
                236.0,
                238.5,
                241.0,
                243.5,
                246.0,
                248.5,
                251.0,
                253.5,
                256.0,
                258.5,
                261.0,
                263.5,
                266.0,
                268.5,
                271.0,
                273.5,
                276.0,
                278.5,
                281.0,
                283.5,
                286.0,
                288.5,
                291.0,
                293.5,
                296.0,
                298.5,
                301.0,
                303.5,
                306.0,
                308.5,
                311.0,
                313.5,
                316.0,
                318.5,
                321.0,
                323.5,
                326.0,
                328.5,
                331.0,
                333.5,
                336.0,
                338.5,
                341.0,
                343.5,
                346.0,
                348.5,
                350.0
            ]
        },
        "limit": {
            "observed": [
                0.002572,
                0.0024603,
                0.0022002,
                0.003282,
                0.0032191,
                0.002474,
                0.0024929,
                0.0023198,
                0.0020913,
                0.0018598,
                0.0024045,
                0.0022708,
                0.0021673,
                0.0023954,
                0.0020347,
                0.0023314,
                0.0026007,
                0.0023724,
                0.0026217,
                0.0026855,
                0.0025132,
                0.0023353,
                0.0020224,
                0.0015821,
                0.0015537,
                0.0017716,
                0.0019279,
                0.0018888,
                0.0015476,
                0.0014559,
                0.0010813,
                0.0011407,
                0.0013746,
                0.0014892,
                0.0017259,
                0.0014641,
                0.0013731,
                0.0011939,
                0.00094023,
                0.0011706,
                0.00097222,
                0.0012213,
                0.0013487,
                0.0013711,
                0.0016294,
                0.0013547,
                0.0015436,
                0.0014349,
                0.0013205,
                0.0014697,
                0.0011922,
                0.0013692,
                0.0013147,
                0.0011571,
                0.0012503,
                0.0010359,
                0.0011648,
                0.0010554,
                0.00095828,
                0.00097401,
                0.00090251,
                0.00092236,
                0.00097015,
                0.00093057,
                0.00087985,
                0.00094079,
                0.00091227,
                0.0010793,
                0.00099418,
                0.0011613,
                0.0011002,
                0.0010446,
                0.0010319,
                0.00085279,
                0.00086019,
                0.0008611,
                0.00079999,
                0.0010591,
                0.0010334,
                0.0011013,
                0.0012727,
                0.0011853,
                0.001397,
                0.001245,
                0.0013504,
                0.0012022,
                0.0010413,
                0.0010421,
                0.00097795
            ],
            "expected": [
                0.0037117,
                0.003439,
                0.0033445,
                0.0031638,
                0.0031243,
                0.0029359,
                0.0028757,
                0.0026857,
                0.0026448,
                0.0025377,
                0.0025869,
                0.0024735,
                0.0024961,
                0.0023921,
                0.0023811,
                0.0022754,
                0.0022813,
                0.0021896,
                0.0022079,
                0.002127,
                0.002145,
                0.0020396,
                0.0020343,
                0.0019193,
                0.0018965,
                0.0018033,
                0.0017988,
                0.0017042,
                0.001697,
                0.0016457,
                0.001639,
                0.0015938,
                0.0015995,
                0.0015543,
                0.0015652,
                0.0015111,
                0.0015137,
                0.001465,
                0.001449,
                0.0014056,
                0.0013922,
                0.0013499,
                0.0013485,
                0.001307,
                0.0013092,
                0.0012624,
                0.0012621,
                0.0012114,
                0.0012071,
                0.001181,
                0.0011794,
                0.0011579,
                0.0011636,
                0.0011457,
                0.0011488,
                0.0011259,
                0.0011229,
                0.0010922,
                0.001077,
                0.0010438,
                0.0010288,
                0.0010003,
                0.00099179,
                0.00097032,
                0.00096405,
                0.00094558,
                0.00093836,
                0.00091712,
                0.00091078,
                0.00089114,
                0.00088652,
                0.00086716,
                0.00086196,
                0.00084292,
                0.00084155,
                0.00082693,
                0.0008226,
                0.00081385,
                0.00080872,
                0.00079573,
                0.00079001,
                0.00077693,
                0.00077071,
                0.00075758,
                0.00075414,
                0.00074093,
                0.00073986,
                0.00073237,
                0.00073063
            ]
        }
    }
}