{
    "limitClass": "ChannelLimit",
    "id": 210404762,
    "reference": "2104.04762",
    "source": "https://doi.org/10.17182/hepdata.102461.v1/t6",
    "citeKey": "CMS:2021wlt",
    "collider": "LHC13",
    "experiment": "CMS",
    "luminosity": 137.0,
    "process": {
        "channels": [
            [
                "vbfHpm",
                "WZ"
            ]
        ]
    },
    "analysis": {
        "massResolution": {
            "absolute": 5,
            "relative": 0.05
        },
        "grid": {
            "mass": [
                200.0,
                300.0,
                400.0,
                500.0,
                600.0,
                700.0,
                800.0,
                900.0,
                1000.0,
                1500.0,
                2000.0,
                3000.0
            ]
        },
        "limit": {
            "observed": [
                0.447,
                0.514,
                0.282,
                0.101,
                0.0538,
                0.0337,
                0.0323,
                0.0294,
                0.0248,
                0.0149,
                0.0159,
                0.0215
            ],
            "expected": [
                0.327,
                0.279,
                0.181,
                0.113,
                0.0798,
                0.0591,
                0.056,
                0.0416,
                0.0343,
                0.0228,
                0.0237,
                0.0336
            ]
        }
    }
}