{
    "limitClass": "ChannelLimit",
    "id": 220703925,
    "reference": "2207.03925",
    "source": "Fig.9(a)",
    "citeKey": "ATLAS:2022zuc",
    "collider": "LHC13",
    "experiment": "ATLAS",
    "luminosity": 139.0,
    "process": {
        "channels": [
            [
                "vbfHpm",
                "WZ"
            ]
        ]
    },
    "analysis": {
        "massResolution": {
            "absolute": 5,
            "relative": 0.05
        },
        "grid": {
            "mass": [
                200.0,
                225.0,
                250.0,
                275.0,
                300.0,
                325.0,
                350.0,
                375.0,
                400.0,
                425.0,
                450.0,
                475.0,
                500.0,
                525.0,
                550.0,
                600.0,
                700.0,
                800.0,
                900.0,
                1000.0
            ]
        },
        "limit": {
            "observed": [
                0.108355,
                0.130951,
                0.104927,
                0.0619394,
                0.0687081,
                0.0921919,
                0.114279,
                0.0998076,
                0.0678133,
                0.0411241,
                0.0365128,
                0.0276783,
                0.0301394,
                0.0208829,
                0.0200404,
                0.0176043,
                0.0134374,
                0.0102897,
                0.00910422,
                0.00898817
            ],
            "expected": [
                0.125716,
                0.139058,
                0.104146,
                0.0858378,
                0.0765534,
                0.0537465,
                0.0507585,
                0.0433117,
                0.0359983,
                0.0317009,
                0.0316753,
                0.0273465,
                0.0264632,
                0.0185314,
                0.0179424,
                0.0159829,
                0.0131622,
                0.0103054,
                0.00918755,
                0.00900141
            ]
        }
    }
}