{
    "limitClass": "ChannelLimit",
    "id": 1507059302,
    "reference": "1507.05930",
    "source": "Fig. 12b",
    "citeKey": "ATLAS:2015pre",
    "collider": "LHC8",
    "experiment": "ATLAS",
    "luminosity": 20.3,
    "process": {
        "channels": [
            [
                "vbfH",
                "ZZ"
            ]
        ]
    },
    "analysis": {
        "massResolution": {
            "absolute": 0.1,
            "relative": 0.02
        },
        "grid": {
            "mass": [
                140.0,
                145.0,
                150.0,
                155.0,
                160.0,
                165.0,
                170.0,
                175.0,
                180.0,
                185.0,
                190.0,
                195.0,
                200.0,
                215.0,
                220.0,
                240.0,
                260.0,
                265.0,
                280.0,
                295.0,
                300.0,
                315.0,
                320.0,
                340.0,
                360.0,
                380.0,
                400.0,
                420.0,
                440.0,
                460.0,
                480.0,
                500.0,
                520.0,
                540.0,
                560.0,
                580.0,
                600.0,
                650.0,
                700.0,
                750.0,
                800.0,
                850.0,
                900.0,
                950.0,
                1000.0
            ]
        },
        "limit": {
            "observed": [
                0.1943,
                0.2735,
                0.2564,
                0.1561,
                0.09936,
                0.1294,
                0.1152,
                0.09497,
                0.09808,
                0.1389,
                0.2182,
                0.3092,
                0.2683,
                0.2119,
                0.1931,
                0.1906,
                0.1787,
                0.1623,
                0.113,
                0.113,
                0.113,
                0.0754,
                0.06285,
                0.04553,
                0.08083,
                0.09315,
                0.06575,
                0.06326,
                0.06245,
                0.04825,
                0.04324,
                0.03752,
                0.03112,
                0.0288,
                0.027,
                0.02483,
                0.02113,
                0.01822,
                0.01622,
                0.01116,
                0.0108,
                0.0102,
                0.01372,
                0.008904,
                0.01363
            ],
            "expected": [
                0.1581,
                0.1541,
                0.1444,
                0.1337,
                0.1316,
                0.1294,
                0.132,
                0.1345,
                0.1443,
                0.1541,
                0.163,
                0.1719,
                0.169,
                0.1601,
                0.1574,
                0.1463,
                0.1295,
                0.1253,
                0.1157,
                0.106,
                0.1026,
                0.09255,
                0.08798,
                0.06968,
                0.06618,
                0.05931,
                0.05706,
                0.04763,
                0.04437,
                0.04106,
                0.0385,
                0.0334,
                0.02789,
                0.0266,
                0.02531,
                0.02491,
                0.02451,
                0.01968,
                0.01822,
                0.01654,
                0.01521,
                0.01354,
                0.01294,
                0.01229,
                0.0116
            ]
        }
    }
}