{
    "limitClass": "PairDecayLimit",
    "id": 200714811,
    "reference": "2007.14811",
    "source": "https://doi.org/10.17182/hepdata.95432.v2/t4",
    "citeKey": "ATLAS:2020azv",
    "collider": "LHC13",
    "experiment": "ATLAS",
    "luminosity": 139.0,
    "process": {
        "production": [
            "H"
        ],
        "firstDecay": [
            "bb"
        ],
        "secondDecay": [
            "tautau"
        ]
    },
    "analysis": {
        "equalDaughterMasses": true,
        "massResolution": {
            "firstDaughter": {
                "absolute": 30,
                "relative": 0
            },
            "secondDaughter": {
                "absolute": 45,
                "relative": 0
            },
            "mother": {
                "absolute": 15,
                "relative": 0.15
            }
        },
        "grid": {
            "massMother": [
                1000.0,
                1100.0,
                1200.0,
                1400.0,
                1599.0,
                1600.0,
                1800.0,
                2000.0,
                2499.0,
                2500.0,
                3000.0
            ],
            "massFirstDaughter": [
                125.0
            ]
        },
        "limit": {
            "observed": [
                0.0612871701003575,
                0.0142290054470178,
                0.00703503207466858,
                0.00433080144430288,
                0.00369057161038724,
                0.00388313654865449,
                0.00366302588742503,
                0.00369289772700894,
                0.00460751177545986,
                0.00206837539641927,
                0.00363950209513777
            ],
            "expected": [
                0.0468392845828392,
                0.0112319167339792,
                0.00553201557135404,
                0.00346914781880681,
                0.0029561490604965,
                0.00293140968468435,
                0.00274475758479743,
                0.00277925164321673,
                0.00344017641146356,
                0.00238417949402493,
                0.00398336966424402
            ]
        }
    }
}